<?xml version="1.0" encoding="utf-8"?>
<!-- Generator: Adobe Illustrator 19.2.1, SVG Export Plug-In . SVG Version: 6.00 Build 0)  -->
<svg version="1.1" id="Layer_1" xmlns="http://www.w3.org/2000/svg" xmlns:xlink="http://www.w3.org/1999/xlink" x="0px" y="0px"
	 viewBox="0 0 84 84" style="enable-background:new 0 0 84 84;" xml:space="preserve">
<style type="text/css">
	.st0{fill:none;stroke:#8C6C21;stroke-width:2;stroke-miterlimit:10;}
	.st1{fill:#8C6C21;}
</style>
<g>
	<circle class="st0" cx="42" cy="42.1" r="40.7"/>
	<g>
		<g>
			<path class="st1" d="M19,33.8c1.3-0.9,1.6-2.7,0.8-4c-0.9-1.3-5.4-2.8-5.4-2.8s-0.2,4.7,0.7,6C15.9,34.3,17.7,34.7,19,33.8z"/>
			<path class="st1" d="M34.4,28.2c1.6-0.6,2.5-2.3,2-4c-0.6-1.6-4.9-4.6-4.9-4.6s-1.6,5-1.1,6.6C30.9,27.8,32.7,28.7,34.4,28.2z"/>
			<path class="st1" d="M65.5,33.8c1.3,0.9,3.1,0.6,4-0.6c0.9-1.3,0.8-6,0.8-6s-4.5,1.4-5.5,2.7C63.9,31.1,64.2,32.9,65.5,33.8z"/>
			<path class="st1" d="M67.2,39.9c1.5-0.4,4.4-4.1,4.4-4.1s-4.4-1.8-5.9-1.4c-0.3,0.1-0.5,0.2-0.7,0.3c0-0.2,0-0.5,0-0.7
				c-0.3-1.6-3.7-4.8-3.7-4.8s-2.2,4.2-2,5.7c0.2,1.6,1.7,2.6,3.3,2.4c0.4-0.1,0.7-0.2,1-0.4c0,0.1,0,0.2,0,0.3
				c-0.7,0.9-1.3,1.9-1.8,2.9c-0.1,0-0.1,0.1-0.2,0.1c-0.1-0.3-0.1-0.6-0.3-1c-0.8-1.4-5.2-3.4-5.2-3.4s-0.7,4.8,0.1,6.2
				c0.8,1.4,2.4,1.9,3.8,1.2c0,0,0,0.1,0,0.1c0,0.1,0,0.2,0.1,0.2c-0.4,1-0.8,2-1.2,3c0,0-0.1,0.1-0.1,0.1c0-0.5-0.2-1-0.5-1.5
				c-0.5-0.7-1.9-1.6-3.2-2.3c0.3-0.6,0.5-1.1,0.5-1.1s-4.3-0.5-6.5,0l0.1-0.8c0.8,0.3,1.6,0.2,2.4-0.2c1.6-0.8,4-5.6,4-5.6
				s-3.5-0.7-5.7-0.5l0.2-1.7c1,1,2.6,1.3,3.8,0.5c1.5-0.9,3.5-5.7,3.5-5.7s-5.2-0.6-6.7,0.3c-0.3,0.1-0.5,0.3-0.7,0.5
				c0-0.3-0.1-0.5-0.2-0.8c-0.7-1.6-5.3-4.1-5.3-4.1s-1.1,5.1-0.4,6.7c0.7,1.6,2.6,2.3,4.2,1.6c0.4-0.2,0.7-0.4,1-0.7
				c0,0.1,0,0.2,0.1,0.3c-0.4,1.1-0.8,2.3-1.1,3.6c-0.1,0-0.1,0.1-0.2,0.2c-0.2-0.3-0.3-0.6-0.6-0.9c-1.2-1.3-6.5-2.1-6.5-2.1
				s0.1,0.5,0.2,1.1c-1.5,0.3-3.3,0.8-4,1.4c-0.3,0.3-0.5,0.6-0.6,0.9c-0.1-0.1-0.1-0.1-0.2-0.2c-0.3-1.3-0.6-2.5-1-3.6
				c0-0.1,0.1-0.2,0.1-0.3c0.3,0.3,0.6,0.5,0.9,0.7c1.6,0.8,3.4,0.1,4.2-1.4c0.8-1.6-0.2-6.7-0.2-6.7s-4.6,2.3-5.4,3.9
				c-0.1,0.2-0.2,0.5-0.2,0.8c-0.2-0.2-0.4-0.4-0.6-0.6c-1.5-0.9-6.7-0.5-6.7-0.5s1.8,4.9,3.3,5.8c1.2,0.8,2.8,0.6,3.8-0.4l0.2,1.7
				c-2.1-0.3-5.7,0.3-5.7,0.3s2.2,4.8,3.8,5.7c0.8,0.4,1.6,0.5,2.4,0.2l0.1,0.8c-2.3-0.5-6.5-0.2-6.5-0.2s0.2,0.4,0.4,1.1
				c-1.3,0.6-2.8,1.4-3.3,2.2c-0.3,0.5-0.4,1-0.5,1.5c0,0-0.1-0.1-0.1-0.1c-0.3-1-0.7-2-1.1-3c0-0.1,0.1-0.2,0.1-0.2
				c0,0,0-0.1,0-0.1c1.4,0.7,3.1,0.3,3.9-1.1c0.8-1.4,0.3-6.2,0.3-6.2s-4.5,1.8-5.3,3.2c-0.2,0.3-0.3,0.6-0.3,0.9
				c-0.1,0-0.1-0.1-0.2-0.1c-0.5-1.1-1.1-2-1.8-3c0-0.1,0-0.2,0-0.3c0.3,0.2,0.6,0.3,1,0.4c1.6,0.3,3-0.7,3.3-2.3
				c0.3-1.6-1.8-5.8-1.8-5.8s-3.5,3.2-3.8,4.7c0,0.2,0,0.5,0,0.7c-0.2-0.1-0.4-0.3-0.7-0.3c-1.5-0.5-6,1.2-6,1.2s2.8,3.8,4.3,4.3
				c1.3,0.4,2.6-0.2,3.3-1.3l0.6,1.5C19,40.3,16,41.6,16,41.6s3.1,3.7,4.7,4.1c0.8,0.2,1.6,0,2.2-0.4l0.3,0.7
				c-2.1,0.1-5.8,1.4-5.8,1.4s3.1,4.3,4.8,4.8c1.1,0.3,2.2,0,3-0.7l0.6,1.6c-0.1,0-0.1-0.1-0.2-0.1C24,52.5,19,54.3,19,54.3
				s3.1,4.3,4.8,4.8c1.5,0.5,3-0.2,3.8-1.5l1.1,3c0,0-0.3-1.7-0.8-4.2c0,0,0-0.1,0-0.1c0.2,0.2,0.4,0.4,0.6,0.6
				c1.2,0.8,2.9,0.7,3.9-0.3c1.4,0.6,3,0.3,4-0.8l0.3,3.6c0,0,0.2-1.8,0.4-4.7c0,0,0-0.1,0.1-0.1c0.1,0.3,0.3,0.5,0.5,0.8
				c1.2,1.4,3.3,1.6,4.8,0.5c1.2,0.3,2.6,0,3.5-1c0.2-0.2,0.4-0.5,0.5-0.8c0,0,0,0.1,0,0.1c0.1,2.8,0.3,4.7,0.3,4.7l0.4-3.6
				c1,1.1,2.6,1.5,4,0.9c1,1,2.6,1.2,3.9,0.4c0.2-0.2,0.5-0.4,0.6-0.6c0,0,0,0.1,0,0.1c-0.6,2.5-0.9,4.2-0.9,4.2l1.2-3
				c0.7,1.3,2.2,2.1,3.7,1.6c1.7-0.5,4.9-4.7,4.9-4.7s-4.9-2-6.7-1.5c-0.1,0-0.1,0-0.2,0.1l0.6-1.6c0.8,0.7,1.9,1,3,0.8
				c1.7-0.5,5-4.7,5-4.7S63,46,60.9,45.9l0.3-0.7c0.6,0.4,1.4,0.6,2.2,0.4c1.6-0.3,4.8-3.9,4.8-3.9s-2.9-1.4-4.8-1.8l0.6-1.5
				C64.6,39.6,65.9,40.2,67.2,39.9z M42.8,39.2c1.2,1.2,3.1,1.3,4.4,0.2c0,0,0,0.1,0,0.1c0,0.1,0.1,0.2,0.1,0.2
				c-0.2,1.2-0.3,2.3-0.4,3.5c0,0-0.1,0.1-0.1,0.1c-0.2-0.5-0.5-1-0.9-1.4c-0.1-0.1-0.3-0.3-0.6-0.4c0.1-0.5,0.2-0.8,0.2-0.8
				s-0.8,0.1-1.8,0.2c-0.9-0.3-2-0.5-2.9-0.6c0.2-0.1,0.4-0.3,0.6-0.5c0.3-0.3,0.5-0.7,0.8-1.3C42.4,38.8,42.6,39,42.8,39.2z
				 M37.3,43.9c0-0.1-0.1-0.1-0.1-0.2c-0.1-1.2-0.2-2.4-0.3-3.5c0-0.1,0.1-0.1,0.2-0.2c0,0,0-0.1,0-0.1c0.5,0.5,1.1,0.7,1.7,0.8
				c0.1,0.3,0.2,0.8,0.3,1.3c-0.3,0.1-0.6,0.3-0.8,0.5C37.8,42.8,37.5,43.3,37.3,43.9z M27.7,52.5c-0.2,0.3-0.4,0.7-0.4,1
				c-0.3-1.2-0.6-2.4-1-3.7c0-0.2,0.1-0.3,0.1-0.5c0.1,0.1,0.3,0.3,0.4,0.4c0.5,0.3,1.1,0.5,1.7,0.5c0.1,0.3,0.3,0.7,0.5,1.1
				C28.4,51.8,27.9,52.2,27.7,52.5z M35.8,50.5c-0.5-0.3-1.2-0.5-2.1-0.6c0-0.4,0-0.7,0-0.7s-0.6,0.2-1.5,0.6c-0.7,0-1.4,0-2.1,0
				c0.4-0.2,0.8-0.6,1-1c0.2-0.3,0.3-0.6,0.4-1.1c0.3,0.3,0.5,0.6,0.8,0.8c1.1,0.7,2.3,0.7,3.4,0.2l0.2,1.9
				C35.9,50.6,35.9,50.6,35.8,50.5z M37.3,51.5c0-1.3,0.1-2.7,0-4.2c0.1-0.2,0.2-0.3,0.2-0.5c0.1,0.2,0.2,0.4,0.4,0.5
				c0.3,0.3,0.7,0.6,1,0.8c-0.2,0-0.4,0-0.4,0S38.8,49,39,50c-0.4,0.2-0.7,0.3-0.9,0.5C37.8,50.8,37.5,51.2,37.3,51.5z M45.9,50
				c-0.2-0.1-0.4-0.3-0.6-0.4c0.1-0.4,0.2-0.7,0.2-0.7s-0.7,0-1.7,0.2c-0.8-0.2-1.7-0.4-2.5-0.5c0.5-0.1,1-0.3,1.4-0.6
				c1.2,0.3,2.5,0,3.4-1c0.1-0.2,0.3-0.3,0.4-0.5c0.1,0.2,0.1,0.3,0.2,0.5c-0.1,1.5-0.1,2.9-0.1,4.2C46.4,50.7,46.2,50.3,45.9,50z
				 M48.1,50.1c-0.1,0-0.1,0.1-0.2,0.1l0.2-1.9c1,0.5,2.3,0.6,3.4-0.1c0.3-0.2,0.5-0.4,0.8-0.8c0.1,0.4,0.2,0.8,0.4,1.1
				c0.3,0.4,0.6,0.8,1,1c-0.6,0-1.3-0.1-2.1-0.1c-0.8-0.4-1.4-0.6-1.4-0.6s0,0.3,0,0.7C49.4,49.7,48.6,49.8,48.1,50.1z M55,51.2
				c0.2-0.5,0.4-0.9,0.5-1.1c0.6,0,1.2-0.1,1.7-0.5c0.2-0.1,0.3-0.2,0.5-0.4c0,0.2,0,0.3,0.1,0.5c-0.4,1.3-0.8,2.5-1.1,3.6
				c-0.1-0.4-0.2-0.7-0.4-1C56,51.9,55.5,51.6,55,51.2z"/>
			<path class="st1" d="M50.3,27.7c1.6,0.6,3.4-0.2,4-1.8c0.6-1.6-0.9-6.6-0.9-6.6s-4.4,2.8-5,4.4C47.8,25.3,48.6,27.1,50.3,27.7z"
				/>
		</g>
	</g>
</g>
</svg>
