<?xml version="1.0" encoding="utf-8"?>
<!-- Generator: Adobe Illustrator 19.2.1, SVG Export Plug-In . SVG Version: 6.00 Build 0)  -->
<svg version="1.1" id="Layer_1" xmlns="http://www.w3.org/2000/svg" xmlns:xlink="http://www.w3.org/1999/xlink" x="0px" y="0px"
	 viewBox="0 0 84 84" style="enable-background:new 0 0 84 84;" xml:space="preserve">
<style type="text/css">
	.st0{fill:#6EC829;}
	.st1{fill:none;stroke:#6EC829;stroke-width:2;stroke-miterlimit:10;}
</style>
<g>
	<g>
		<path class="st0" d="M16.1,62.7l1.9,0.6l0.2-0.2c-0.2-0.4,9.3-11.2,9.2-11.6c-0.4,0-1.6-0.7-1.6-0.7S25.7,51,25.6,51
			C22.1,55.2,16.1,62.7,16.1,62.7z"/>
		<path class="st0" d="M63.9,16.8c-1.4-1.3-3.5-1.4-5.1-0.3c-2-1.4-5.4-1.3-8.4,0.5c-0.5,0.3-0.9,0.6-1.4,0.9c-2-1.2-5.2-1-8.1,0.7
			c-1.2,0.7-2.1,1.5-2.9,2.5c-1.7,0.3-3.5,1.3-5.1,2.9c-1.5,1.5-2.4,3.4-2.7,5.1c-0.9,0.8-1.8,1.9-2.5,3.1c-1,2-1.4,4.1-1.1,5.8
			c-0.9,0.8-1.8,1.9-2.4,3.1c-2,3.9-1.5,8.2,1.2,9.5c0.2,0.1,0.3,0.1,0.5,0.2c2.4-3.1,5.1-6,7.9-8.7l-0.3,0.1l-1.9-5.9l3.1,4.9
			c0.3-0.3,0.6-0.6,1-1c1.6-1.6,3.3-3.2,4.9-4.8l-1.7-5.2l2.7,4.3c2.1-1.9,4.2-3.8,6.3-5.6l-1.2-3.7l2,3.1c3-2.6,6-5.1,9.1-7.5
			l0.1,0.2c-2.9,2.5-5.7,5.2-8.5,7.8l3.2,2l-4-1.2l0-0.1c-0.5,0.5-1,1-1.5,1.5c-1.5,1.5-3,2.9-4.5,4.4l4.4,2.6l-5.4-1.6
			c-1.6,1.7-3.2,3.3-4.8,5c-0.4,0.4-0.8,0.9-1.2,1.3l4.3,2.6l0.7,0.4l-0.9-0.3l-5.1-1.5l0.1-0.3c-2.5,2.9-5,5.8-7.5,8.7
			c0,0.1,0.1,0.2,0.1,0.3c0.7,1.2,2,1.9,3.6,2.1c1.8,0.2,4-0.2,6-1.4c0.5-0.3,0.9-0.6,1.4-0.9c2,1.2,5.2,1,8.1-0.7
			c1.2-0.7,2.1-1.5,2.9-2.5c1.7-0.3,3.5-1.3,5.1-2.9c1.5-1.5,2.4-3.4,2.7-5.1c0.9-0.8,1.8-1.9,2.5-3.2c1-2,1.4-4.1,1.1-5.8
			c0.9-0.8,1.8-1.9,2.4-3.1c0.3-0.6,0.5-1.1,0.7-1.7c0.6-1.9,0.7-3.9,0.1-5.4C65.4,20.5,65.3,18.2,63.9,16.8z"/>
	</g>
</g>
<g>
	<circle class="st1" cx="42.2" cy="42" r="40.7"/>
</g>
</svg>
