<?xml version="1.0" encoding="utf-8"?>
<!-- Generator: Adobe Illustrator 19.2.1, SVG Export Plug-In . SVG Version: 6.00 Build 0)  -->
<svg version="1.1" id="Layer_1" xmlns="http://www.w3.org/2000/svg" xmlns:xlink="http://www.w3.org/1999/xlink" x="0px" y="0px"
	 viewBox="0 0 84 84" style="enable-background:new 0 0 84 84;" xml:space="preserve">
<style type="text/css">
	.st0{fill:none;stroke:#17468F;stroke-width:2;stroke-miterlimit:10;}
	.st1{fill:#17468F;}
</style>
<g>
	<circle class="st0" cx="42" cy="42.1" r="40.7"/>
</g>
<g>
	<path class="st1" d="M56.6,41.2c1.5-2.3,3.1-6.4,1.2-11.5c-2.1-5.8-7.8-7.7-10.8-8.3v-4.1c0,0-14.9,0-15.4,0S30,17.6,30,18.1
		c0,1.9,7.2,1.1,7.1,5.7c0,2.4,0,7.8,0,11.5c-8.2,2.2-14.2,9.7-14.2,18.6c0,5.4,2.3,10.2,5.8,13.8c1.2,1.2,8.2,1.6,13.5,1.6
		c5.3,0,12.4-0.6,13.5-1.7c3.5-3.5,5.8-8.4,5.8-13.7C61.4,49,59.6,44.6,56.6,41.2z M53.1,38c-1.8-1.2-3.8-2.2-6-2.8v-9.3
		c4.2,1,7.3,4.7,7.3,7.6C54.4,35.2,53.7,36.8,53.1,38z"/>
	<rect x="38.5" y="12" class="st1" width="7.2" height="3.6"/>
</g>
</svg>
